Applied Economics with R for UoB students
…
While we only have to install a package once on each computer, we have load it in every new session.

2.2 Loading a csv data file

Having installed readr we are now ready to use the read_csv() function to load our first dataset. We will load the dataset school_data_1.csv by inserting the path to the file in the parenthesis. In the example below we first load the readr package to illustrate that we have to load it in every new session. However, in later code blocks we’ll leave out the library() call for packages that have already been loaded.

PS. note also that we include comments in code block below. Comments are lines that R ignores and these lines always start with a # symbol.

# load readr package
library("readr")
# load data
read_csv("C:/Users/hhs/school_data_1.csv")

## # A tibble: 3,491 × 8
##    person_id school_id summercamp female parental_schooling parental_lincome
##        <int>     <int>      <dbl>  <dbl>              <dbl>            <dbl>
##  1         1         5          0      1                 10             12.9
##  2         2        14          1      0                 11             14.7
##  3         3         7          1      0                 14             16.1
##  4         4         8          0      0                 12             14.6
##  5         5         9          1      0                 11             13.8
##  6         6        26          1      1                 11             14.7
##  7         7        13          1      1                 11             14.4
##  8         8        11          0      1                 13             15.0
##  9         9        23          1      1                 11             14.3
## 10        10         9          1      1                 11             13.8
## # … with 3,481 more rows, and 2 more variables: test_year_5 <dbl>,
## #   test_year_6 <dbl>
…
